{"protocolVersion":"0.1.1","runnerVersion":null,"pid":14301,"type":"start","time":0}
{"suite":{"id":0,"platform":"vm","path":"/Users/danielperez/Projects/personal/test/links_shorten/test/widget_test.dart"},"type":"suite","time":0}
{"test":{"id":1,"name":"loading /Users/danielperez/Projects/personal/test/links_shorten/test/widget_test.dart","suiteID":0,"groupIDs":[],"metadata":{"skip":false,"skipReason":null},"line":null,"column":null,"url":null},"type":"testStart","time":2}
{"suite":{"id":2,"platform":"vm","path":"/Users/danielperez/Projects/personal/test/links_shorten/test/adapters/short_link_adapter/short_link_adapter_test.dart"},"type":"suite","time":10}
{"test":{"id":3,"name":"loading /Users/danielperez/Projects/personal/test/links_shorten/test/adapters/short_link_adapter/short_link_adapter_test.dart","suiteID":2,"groupIDs":[],"metadata":{"skip":false,"skipReason":null},"line":null,"column":null,"url":null},"type":"testStart","time":10}
{"suite":{"id":4,"platform":"vm","path":"/Users/danielperez/Projects/personal/test/links_shorten/test/adapters/common/api_client_test.dart"},"type":"suite","time":12}
{"test":{"id":5,"name":"loading /Users/danielperez/Projects/personal/test/links_shorten/test/adapters/common/api_client_test.dart","suiteID":4,"groupIDs":[],"metadata":{"skip":false,"skipReason":null},"line":null,"column":null,"url":null},"type":"testStart","time":12}
{"count":3,"time":13,"type":"allSuites"}

[{"event":"test.startedProcess","params":{"observatoryUri":"http://127.0.0.1:57257/mTvM7whmBeM=/"}}]

[{"event":"test.startedProcess","params":{"observatoryUri":"http://127.0.0.1:57262/cg5L4dQHeR0=/"}}]

[{"event":"test.startedProcess","params":{"observatoryUri":"http://127.0.0.1:57264/LnBWq-OORRw=/"}}]
{"testID":1,"result":"success","skipped":false,"hidden":true,"type":"testDone","time":2035}
{"group":{"id":6,"suiteID":0,"parentID":null,"name":"","metadata":{"skip":false,"skipReason":null},"testCount":1,"line":null,"column":null,"url":null},"type":"group","time":2040}
{"test":{"id":7,"name":"Validates title rendered","suiteID":0,"groupIDs":[6],"metadata":{"skip":false,"skipReason":null},"line":153,"column":5,"url":"package:flutter_test/src/widget_tester.dart","root_line":15,"root_column":3,"root_url":"file:///Users/danielperez/Projects/personal/test/links_shorten/test/widget_test.dart"},"type":"testStart","time":2041}
{"testID":3,"result":"success","skipped":false,"hidden":true,"type":"testDone","time":2134}
{"group":{"id":8,"suiteID":2,"parentID":null,"name":"","metadata":{"skip":false,"skipReason":null},"testCount":4,"line":null,"column":null,"url":null},"type":"group","time":2134}
{"group":{"id":9,"suiteID":2,"parentID":8,"name":"Link shorten","metadata":{"skip":false,"skipReason":null},"testCount":3,"line":20,"column":3,"url":"file:///Users/danielperez/Projects/personal/test/links_shorten/test/adapters/short_link_adapter/short_link_adapter_test.dart"},"type":"group","time":2134}
{"test":{"id":10,"name":"Link shorten get it successfully","suiteID":2,"groupIDs":[8,9],"metadata":{"skip":false,"skipReason":null},"line":21,"column":5,"url":"file:///Users/danielperez/Projects/personal/test/links_shorten/test/adapters/short_link_adapter/short_link_adapter_test.dart"},"type":"testStart","time":2135}
{"testID":10,"result":"success","skipped":false,"hidden":false,"type":"testDone","time":2199}
{"test":{"id":11,"name":"Link shorten failed on get one","suiteID":2,"groupIDs":[8,9],"metadata":{"skip":false,"skipReason":null},"line":40,"column":5,"url":"file:///Users/danielperez/Projects/personal/test/links_shorten/test/adapters/short_link_adapter/short_link_adapter_test.dart"},"type":"testStart","time":2200}
{"testID":11,"result":"success","skipped":false,"hidden":false,"type":"testDone","time":2206}
{"test":{"id":12,"name":"Link shorten failed on get one by client call exception","suiteID":2,"groupIDs":[8,9],"metadata":{"skip":false,"skipReason":null},"line":56,"column":5,"url":"file:///Users/danielperez/Projects/personal/test/links_shorten/test/adapters/short_link_adapter/short_link_adapter_test.dart"},"type":"testStart","time":2206}
{"testID":12,"result":"success","skipped":false,"hidden":false,"type":"testDone","time":2212}
{"group":{"id":13,"suiteID":2,"parentID":8,"name":"Get original URL by alias","metadata":{"skip":false,"skipReason":null},"testCount":1,"line":68,"column":3,"url":"file:///Users/danielperez/Projects/personal/test/links_shorten/test/adapters/short_link_adapter/short_link_adapter_test.dart"},"type":"group","time":2213}
{"test":{"id":14,"name":"Get original URL by alias successfully","suiteID":2,"groupIDs":[8,13],"metadata":{"skip":false,"skipReason":null},"line":69,"column":5,"url":"file:///Users/danielperez/Projects/personal/test/links_shorten/test/adapters/short_link_adapter/short_link_adapter_test.dart"},"type":"testStart","time":2213}
{"testID":14,"result":"success","skipped":false,"hidden":false,"type":"testDone","time":2219}
{"testID":5,"result":"success","skipped":false,"hidden":true,"type":"testDone","time":2237}
{"group":{"id":15,"suiteID":4,"parentID":null,"name":"","metadata":{"skip":false,"skipReason":null},"testCount":2,"line":null,"column":null,"url":null},"type":"group","time":2237}
{"group":{"id":16,"suiteID":4,"parentID":15,"name":"on GET call","metadata":{"skip":false,"skipReason":null},"testCount":1,"line":28,"column":3,"url":"file:///Users/danielperez/Projects/personal/test/links_shorten/test/adapters/common/api_client_test.dart"},"type":"group","time":2237}
{"test":{"id":17,"name":"on GET call perform API call successfully","suiteID":4,"groupIDs":[15,16],"metadata":{"skip":false,"skipReason":null},"line":29,"column":5,"url":"file:///Users/danielperez/Projects/personal/test/links_shorten/test/adapters/common/api_client_test.dart"},"type":"testStart","time":2237}
{"testID":17,"result":"success","skipped":false,"hidden":false,"type":"testDone","time":2310}
{"group":{"id":18,"suiteID":4,"parentID":15,"name":"on POST call","metadata":{"skip":false,"skipReason":null},"testCount":1,"line":41,"column":3,"url":"file:///Users/danielperez/Projects/personal/test/links_shorten/test/adapters/common/api_client_test.dart"},"type":"group","time":2311}
{"test":{"id":19,"name":"on POST call perform API call successfully","suiteID":4,"groupIDs":[15,18],"metadata":{"skip":false,"skipReason":null},"line":42,"column":5,"url":"file:///Users/danielperez/Projects/personal/test/links_shorten/test/adapters/common/api_client_test.dart"},"type":"testStart","time":2311}
{"testID":19,"result":"success","skipped":false,"hidden":false,"type":"testDone","time":2317}
{"testID":7,"result":"success","skipped":false,"hidden":false,"type":"testDone","time":3180}
{"success":true,"type":"done","time":3406}
